[
  {
    "arguments": [
      "/usr/bin/g++",
      "-std=c++11",
      "-m64",
      "-Dlinux64",
      "-DWM_ARCH_OPTION=64",
      "-DWM_DP",
      "-DWM_LABEL_SIZE=32",
      "-Wall",
      "-Wextra",
      "-Wold-style-cast",
      "-Wnon-virtual-dtor",
      "-Wno-unused-parameter",
      "-Wno-invalid-offsetof",
      "-Wno-attributes",
      "-O3",
      "-DNoRepository",
      "-ftemplate-depth-100",
      "-I/opt/OpenFOAM/OpenFOAM-8/src/MomentumTransportModels/momentumTransportModels/lnInclude",
      "-I/opt/OpenFOAM/OpenFOAM-8/src/MomentumTransportModels/incompressible/lnInclude",
      "-I/opt/OpenFOAM/OpenFOAM-8/src/transportModels/lnInclude",
      "-I/opt/OpenFOAM/OpenFOAM-8/src/finiteVolume/lnInclude",
      "-I/opt/OpenFOAM/OpenFOAM-8/src/meshTools/lnInclude",
      "-I/opt/OpenFOAM/OpenFOAM-8/src/sampling/lnInclude",
      "-IlnInclude",
      "-I.",
      "-I/opt/OpenFOAM/OpenFOAM-8/src/OpenFOAM/lnInclude",
      "-I/opt/OpenFOAM/OpenFOAM-8/src/OSspecific/POSIX/lnInclude",
      "-fPIC",
      "-c",
      "-o",
      "Make/linux64GccDPInt32Opt/autoAdjustedDeltaTPisoFOAM.o",
      "autoAdjustedDeltaTPisoFOAM.C"
    ],
    "directory": "/opt/OpenFOAM/FOAM_USER_MODIFICATION/solvers/incompressible/autoAdjustedDeltaTPisoFOAM",
    "file": "/opt/OpenFOAM/FOAM_USER_MODIFICATION/solvers/incompressible/autoAdjustedDeltaTPisoFOAM/autoAdjustedDeltaTPisoFOAM.C",
    "output": "/opt/OpenFOAM/FOAM_USER_MODIFICATION/solvers/incompressible/autoAdjustedDeltaTPisoFOAM/Make/linux64GccDPInt32Opt/autoAdjustedDeltaTPisoFOAM.o"
  }
]
